[MUSIC#1]
NOTES=D64P2P4D64D68D68C68D64P8D64P2P4D64D68D68C68D64P8D64P2F62D64P4C62A#54P4G58P8G54A54A#54D64G64
NOTE_LENGTH=14
NOTE_INTERVAL=2
[MUSIC#2]
NOTES=A#51A#51G51G51F51F51A51A51A#54
NOTE_LENGTH=14
NOTE_INTERVAL=2
[MUSIC#3]
NOTES=G44P8D54P8G44D54G44G44F44D#44P8A#44P8D#44A#44D#44F44G44A#44P8D54P8A#44D54A#44G44F44D44P8D54P8D44D54D44D44F44G44
NOTE_LENGTH=14
NOTE_INTERVAL=2
[MUSIC#4]
NOTES=D64P2P4D64D68D68C68D64P8D64P2P4D64D68D68C68D64P8D64P2F62D64P4C62A#54P4G58P8G54A54A#54D64G64
NOTE_LENGTH=14
NOTE_INTERVAL=2
