﻿[MUSIC#1]
NOTES=F44F#44G44G#41
NOTE_LENGTH=10
NOTE_INTERVAL=0

[MUSIC#2]
NOTES=D#54E54F54F#51
NOTE_LENGTH=10
NOTE_INTERVAL=0

[MUSIC#3]
NOTES=A54A#54B54C61
NOTE_LENGTH=10
NOTE_INTERVAL=0

[MUSIC#4]
NOTES=A64A#64B64C71
NOTE_LENGTH=10
NOTE_INTERVAL=0

