[MUSIC#1]
NOTES=D58E58G58D58B54P8B54P8A52P4D58E58G58D58A54P8A54P8G54G58F#58E54D58E58G58E58G52A54F#54F#58E58D54D58P8D58P8A54A58P8G52
NOTE_LENGTH=15
NOTE_INTERVAL=0
[MUSIC#2]
NOTES=P2G54P8G54P8F#52P4P2F#54P8F#54P8E52P4P2E52P4D52P4P2D54D58P8E52
NOTE_LENGTH=15
NOTE_INTERVAL=0
[MUSIC#3]
NOTES=P2E54P8E54P8D52P4P2D54P8D54P8B42P4P2C52P4A42P4P2B44B48P8B42
NOTE_LENGTH=15
NOTE_INTERVAL=0
[MUSIC#4]
NOTES=D48E48G48D48C44C44C44D44P8D48E48P8G48P8A48P8B44B44B44E44E48F#48E48P8D48E48G48E48A42A44D52A48P8D48P8A48P8F#42E42
NOTE_LENGTH=15
NOTE_INTERVAL=0
